{
  "amdocs/plans/Ultra/ULTRA_FLEX_FIFTEEN": "[ {\"r_unlimited\":\"\"}, {\"b_voice\":\"10000\"}, {\"b_sms\":\"9000\"}, {\"b_data_blk\":\"0\"}, {\"n_roam_smpglb\":\"\"}, {\"a_voicesmswallet_ir\":\"0\"}  ]",
  "amdocs/plans/Ultra/MINT_ONE_MONTH_S":     "[ {\"r_mint_s_01\":\"\"}, {\"b_voice\":\"10000\"}, {\"b_sms\":\"10000\"}, {\"b_data_thr128\":\"0\"}, {\"n_roam_smpglb\":\"\"}, {\"a_voicesmswallet_ir\":\"0\"} ]",
  "amdocs/plans/Ultra/MINT_THREE_MONTHS_S":  "[ {\"r_mint_s_03\":\"\"}, {\"b_voice\":\"10000\"}, {\"b_sms\":\"10000\"}, {\"b_data_thr128\":\"0\"}, {\"n_roam_smpglb\":\"\"}, {\"a_voicesmswallet_ir\":\"0\"} ]",
  "amdocs/plans/Ultra/MINT_SIX_MONTHS_S":    "[ {\"r_mint_s_06\":\"\"}, {\"b_voice\":\"10000\"}, {\"b_sms\":\"10000\"}, {\"b_data_thr128\":\"0\"}, {\"n_roam_smpglb\":\"\"}, {\"a_voicesmswallet_ir\":\"0\"} ]",
  "amdocs/plans/Ultra/MINT_TWELVE_MONTHS_S": "[ {\"r_mint_s_12\":\"\"}, {\"b_voice\":\"10000\"}, {\"b_sms\":\"10000\"}, {\"b_data_thr128\":\"0\"}, {\"n_roam_smpglb\":\"\"}, {\"a_voicesmswallet_ir\":\"0\"} ]",
  "amdocs/plans/Ultra/MINT_ONE_MONTH_M":     "[ {\"r_mint_m_01\":\"\"}, {\"b_voice\":\"10000\"}, {\"b_sms\":\"10000\"}, {\"b_data_thr128\":\"0\"}, {\"n_roam_smpglb\":\"\"}, {\"a_voicesmswallet_ir\":\"0\"} ]",
  "amdocs/plans/Ultra/MINT_THREE_MONTHS_M":  "[ {\"r_mint_m_03\":\"\"}, {\"b_voice\":\"10000\"}, {\"b_sms\":\"10000\"}, {\"b_data_thr128\":\"0\"}, {\"n_roam_smpglb\":\"\"}, {\"a_voicesmswallet_ir\":\"0\"} ]",
  "amdocs/plans/Ultra/MINT_SIX_MONTHS_M":    "[ {\"r_mint_m_06\":\"\"}, {\"b_voice\":\"10000\"}, {\"b_sms\":\"10000\"}, {\"b_data_thr128\":\"0\"}, {\"n_roam_smpglb\":\"\"}, {\"a_voicesmswallet_ir\":\"0\"} ]",
  "amdocs/plans/Ultra/MINT_TWELVE_MONTHS_M": "[ {\"r_mint_m_12\":\"\"}, {\"b_voice\":\"10000\"}, {\"b_sms\":\"10000\"}, {\"b_data_thr128\":\"0\"}, {\"n_roam_smpglb\":\"\"}, {\"a_voicesmswallet_ir\":\"0\"} ]",
  "amdocs/plans/Ultra/MINT_ONE_MONTH_L":     "[ {\"r_mint_l_01\":\"\"}, {\"b_voice\":\"10000\"}, {\"b_sms\":\"10000\"}, {\"b_data_thr128\":\"0\"}, {\"n_roam_smpglb\":\"\"}, {\"a_voicesmswallet_ir\":\"0\"} ]",
  "amdocs/plans/Ultra/MINT_THREE_MONTHS_L":  "[ {\"r_mint_l_03\":\"\"}, {\"b_voice\":\"10000\"}, {\"b_sms\":\"10000\"}, {\"b_data_thr128\":\"0\"}, {\"n_roam_smpglb\":\"\"}, {\"a_voicesmswallet_ir\":\"0\"} ]",
  "amdocs/plans/Ultra/MINT_SIX_MONTHS_L":    "[ {\"r_mint_l_06\":\"\"}, {\"b_voice\":\"10000\"}, {\"b_sms\":\"10000\"}, {\"b_data_thr128\":\"0\"}, {\"n_roam_smpglb\":\"\"}, {\"a_voicesmswallet_ir\":\"0\"} ]",
  "amdocs/plans/Ultra/MINT_TWELVE_MONTHS_L": "[ {\"r_mint_l_12\":\"\"}, {\"b_voice\":\"10000\"}, {\"b_sms\":\"10000\"}, {\"b_data_thr128\":\"0\"}, {\"n_roam_smpglb\":\"\"}, {\"a_voicesmswallet_ir\":\"0\"} ]",
  "amdocs/plans/Ultra/NINETEEN":      "[ {\"n_lte\":\"\"}, {\"r_unlimited\":\"\"}, {\"b_voice\":\"10000\"}, {\"b_sms\":\"9000\"},  {\"a_data_blk_plan\":\"100\"},  {\"b_data_blk\":\"0\"}, {\"n_roam_smpglb\":\"\"}, {\"a_voicesmswallet_ir\":\"500\"}  ]",
  "amdocs/plans/Ultra/STWENTY_THREE": "[ {\"n_lte\":\"\"}, {\"r_unlimited\":\"\"}, {\"b_voice\":\"10000\"}, {\"b_sms\":\"9000\"},  {\"a_data_blk_plan\":\"500\"},  {\"a_data_blk256_v2\":\"500\"},  {\"b_data_thr64\":\"0\"}, {\"n_roam_smpglb\":\"\"}, {\"a_voicesmswallet_ir\":\"500\"} ]",
  "amdocs/plans/Ultra/TWENTY_FOUR":   "[ {\"n_lte\":\"\"}, {\"r_unlimited\":\"\"}, {\"b_voice\":\"10000\"}, {\"b_sms\":\"9000\"},  {\"a_data_blk_plan\":\"500\"},  {\"b_data_blk\":\"0\"}, {\"n_roam_smpglb\":\"\"}, {\"a_voicesmswallet_ir\":\"1000\"} ]",
  "amdocs/plans/Ultra/TWENTY_NINE":   "[ {\"n_lte\":\"\"}, {\"r_unlimited\":\"\"}, {\"b_voice\":\"10000\"}, {\"b_sms\":\"9000\"},  {\"a_data_blk_plan\":\"1024\"}, {\"b_data_blk\":\"0\"}, {\"n_roam_smpglb\":\"\"}, {\"a_voicesmswallet_ir\":\"1000\"} ]",
  "amdocs/plans/Ultra/STWENTY_NINE":  "[ {\"n_lte\":\"\"}, {\"r_unlimited\":\"\"}, {\"b_voice\":\"10000\"}, {\"b_sms\":\"9000\"},  {\"a_data_blk_plan\":\"1024\"}, {\"a_data_blk256_v2\":\"1024\"}, {\"b_data_thr64\":\"0\"}, {\"n_roam_smpglb\":\"\"}, {\"a_voicesmswallet_ir\":\"1000\"} ]",
  "amdocs/plans/Ultra/THIRTY_FOUR":   "[ {\"n_lte\":\"\"}, {\"r_unlimited\":\"\"}, {\"b_voice\":\"10000\"}, {\"b_sms\":\"9000\"},  {\"a_data_blk_plan\":\"2048\"}, {\"a_data_blk256_v2\":\"2048\"}, {\"b_data_thr64\":\"0\"}, {\"n_roam_smpglb\":\"\"}, {\"a_voicesmswallet_ir\":\"1000\"} ]",
  "amdocs/plans/Ultra/THIRTY_NINE":   "[ {\"n_lte\":\"\"}, {\"r_unlimited\":\"\"}, {\"b_voice\":\"10000\"}, {\"b_sms\":\"9000\"},  {\"a_data_blk_plan\":\"750\"},  {\"a_data_blk128\":\"5394\"}, {\"b_data_thr64\":\"0\"}, {\"n_roam_smpglb\":\"\"}, {\"a_voicesmswallet_ir\":\"1000\"} ]",
  "amdocs/plans/Ultra/STHIRTY_NINE":  "[ {\"n_lte\":\"\"}, {\"r_unlimited\":\"\"}, {\"b_voice\":\"10000\"}, {\"b_sms\":\"9000\"},  {\"a_data_blk_plan\":\"2048\"}, {\"a_data_blk256_v2\":\"2048\"}, {\"b_data_thr64\":\"0\"}, {\"n_roam_smpglb\":\"\"}, {\"a_voicesmswallet_ir\":\"1000\"} ]",
  "amdocs/plans/Ultra/DTHIRTY_NINE":  "[ {\"n_lte\":\"\"}, {\"r_unlimited\":\"\"}, {\"b_voice\":\"10000\"}, {\"b_sms\":\"9000\"},  {\"a_data_blk_plan\":\"2048\"}, {\"a_data_blk128\":\"5394\"}, {\"b_data_thr64\":\"0\"}, {\"n_roam_smpglb\":\"\"}, {\"a_voicesmswallet_ir\":\"1000\"} ]",
  "amdocs/plans/Ultra/FORTY_FOUR":    "[ {\"n_lte\":\"\"}, {\"r_unlimited\":\"\"}, {\"b_voice\":\"10000\"}, {\"b_sms\":\"9000\"},  {\"a_data_blk_plan\":\"4096\"}, {\"a_data_blk128\":\"2048\"}, {\"b_data_thr64\":\"0\"}, {\"n_roam_smpglb\":\"\"}, {\"a_voicesmswallet_ir\":\"1500\"} ]",
  "amdocs/plans/Ultra/SFORTY_FOUR":   "[ {\"n_lte\":\"\"}, {\"r_unlimited\":\"\"}, {\"b_voice\":\"10000\"}, {\"b_sms\":\"9000\"},  {\"a_data_blk_plan\":\"1024\"}, {\"a_data_blk128\":\"5120\"}, {\"b_data_thr64\":\"0\"}, {\"n_roam_smpglb\":\"\"}, {\"a_voicesmswallet_ir\":\"1500\"} ]",
  "amdocs/plans/Ultra/SFORTY_FIVE":   "[ {\"n_lte\":\"\"}, {\"r_mrc\":\"\"}, {\"b_voice\":\"10000\"}, {\"b_sms\":\"9000\"},  {\"a_data_blk_plan\":\"5120\"}, {\"a_data_blk256_v2\":\"5120\"}, {\"b_data_thr64\":\"0\"}, {\"n_roam_smpglb\":\"\"}, {\"a_voicesmswallet_ir\":\"1500\"} ]",
  "amdocs/plans/Ultra/FORTY_NINE":    "[ {\"n_lte\":\"\"}, {\"r_unlimited\":\"\"}, {\"b_voice\":\"10000\"}, {\"b_sms\":\"9000\"},  {\"a_data_blk_plan\":\"1024\"}, {\"a_data_blk256_v2\":\"2048\"}, {\"b_data_thr64\":\"0\"}, {\"n_roam_smpglb\":\"\"}, {\"a_voicesmswallet_ir\":\"1500\"} ]",
  "amdocs/plans/Ultra/SFORTY_NINE":   "[ {\"n_lte\":\"\"}, {\"r_unlimited\":\"\"}, {\"b_voice\":\"10000\"}, {\"b_sms\":\"9000\"},  {\"a_data_blk_plan\":\"2048\"}, {\"a_data_blk256_v2\":\"2048\"}, {\"b_data_thr64\":\"0\"}, {\"n_roam_smpglb\":\"\"}, {\"a_voicesmswallet_ir\":\"1500\"} ]",
  "amdocs/plans/Ultra/FIFTY_NINE":    "[ {\"n_lte\":\"\"}, {\"r_unlimited\":\"\"}, {\"b_voice\":\"10000\"}, {\"b_sms\":\"9000\"},  {\"a_data_blk_plan\":\"2560\"}, {\"a_data_blk128\":\"3584\"}, {\"b_data_thr64\":\"0\"}, {\"n_roam_smpglb\":\"\"}, {\"a_voicesmswallet_ir\":\"1500\"} ]",
  "amdocs/plans/Ultra/SFIFTY_FOUR":   "[ {\"n_lte\":\"\"}, {\"r_mrc\":\"\"}, {\"b_voice\":\"10000\"}, {\"b_sms\":\"9000\"},  {\"a_data_blk_plan\":\"10240\"}, {\"a_data_blk256_v2\":\"10240\"}, {\"b_data_thr64\":\"0\"}, {\"n_roam_smpglb\":\"\"}, {\"a_voicesmswallet_ir\":\"1500\"} ]",
  "amdocs/plans/Ultra/ANINETEEN":     "[ {\"n_lte\":\"\"}, {\"r_unlimited\":\"\"}, {\"b_voice\":\"10000\"}, {\"b_sms\":\"9000\"},  {\"a_data_blk_plan\":\"100\"},  {\"b_data_blk\":\"0\"}, {\"n_roam_smpglb\":\"\"}, {\"a_voicesmswallet_ir\":\"500\"}  ]",
  "amdocs/plans/Ultra/ATWENTY_NINE":  "[ {\"n_lte\":\"\"}, {\"r_unlimited\":\"\"}, {\"b_voice\":\"10000\"}, {\"b_sms\":\"9000\"},  {\"a_data_blk_plan\":\"2048\"}, {\"a_data_blk256_v2\":\"2048\"}, {\"b_data_thr64\":\"0\"}, {\"n_roam_smpglb\":\"\"}, {\"a_voicesmswallet_ir\":\"500\"} ]",
  "amdocs/plans/Ultra/ATHIRTY_NINE":  "[ {\"n_lte\":\"\"}, {\"r_unlimited\":\"\"}, {\"b_voice\":\"10000\"}, {\"b_sms\":\"9000\"},  {\"a_data_blk_plan\":\"3072\"}, {\"a_data_blk256_v2\":\"3072\"}, {\"b_data_thr64\":\"0\"}, {\"n_roam_smpglb\":\"\"}, {\"a_voicesmswallet_ir\":\"500\"} ]",
  "amdocs/plans/Ultra/AFORTY_NINE":   "[ {\"n_lte\":\"\"}, {\"r_mrc\":\"\"}, {\"b_voice\":\"10000\"}, {\"b_sms\":\"9000\"},  {\"a_data_blk_plan\":\"30720\"}, {\"a_data_blk256_v2\":\"0\"}, {\"b_data_thr64\":\"0\"}, {\"n_roam_smpglb\":\"\"}, {\"a_voicesmswallet_ir\":\"500\"} ]",
  "amdocs/plans/Ultra/BNINETEEN":     "[ {\"n_lte\":\"\"}, {\"r_unlimited\":\"\"}, {\"b_voice\":\"10000\"}, {\"b_sms\":\"9000\"},  {\"a_data_blk_plan\":\"100\"}, {\"a_data_blk256_v2\":\"30720\"}, {\"b_data_thr64\":\"0\"}, {\"n_roam_smpglb\":\"\"}, {\"a_voicesmswallet_ir\":\"500\"}  ]",
  "amdocs/plans/Ultra/BTWENTY_NINE":  "[ {\"n_lte\":\"\"}, {\"r_mrc\":\"\"}, {\"b_voice\":\"10000\"}, {\"b_sms\":\"9000\"},  {\"a_data_blk_plan\":\"4096\"}, {\"a_data_blk256_v2\":\"4096\"}, {\"b_data_thr64\":\"0\"}, {\"n_roam_smpglb\":\"\"}, {\"a_voicesmswallet_ir\":\"500\"} ]",
  "amdocs/plans/Ultra/BTHIRTY_NINE":  "[ {\"n_lte\":\"\"}, {\"r_mrc\":\"\"}, {\"b_voice\":\"10000\"}, {\"b_sms\":\"9000\"},  {\"a_data_blk_plan\":\"6144\"}, {\"a_data_blk256_v2\":\"6144\"}, {\"b_data_thr64\":\"0\"}, {\"n_roam_smpglb\":\"\"}, {\"a_voicesmswallet_ir\":\"500\"} ]",
  "amdocs/plans/Ultra/BFORTY_NINE":   "[ {\"n_lte\":\"\"}, {\"r_mrc\":\"\"}, {\"b_voice\":\"10000\"}, {\"b_sms\":\"9000\"},  {\"a_data_blk_plan\":\"30720\"}, {\"a_data_blk256_v2\":\"0\"}, {\"b_data_thr64\":\"0\"}, {\"n_roam_smpglb\":\"\"}, {\"a_voicesmswallet_ir\":\"500\"} ]",
  "amdocs/plans/Ultra/UVTWENTY": "[ {\"n_lte\":\"\"}, {\"r_univision\":\"\"}, {\"b_voice\":\"10000\"}, {\"b_sms\":\"10000\"}, {\"a_data_blk_plan\":\"600\" }, {\"b_data_blk\":\"0\"}, {\"n_roam_smpglb\":\"\"}, {\"a_voicesmswallet_ir\":\"500\"} ]",
  "amdocs/plans/Ultra/UVTHIRTY":     "[ {\"n_lte\":\"\"}, {\"r_univision\":\"\"}, {\"b_voice\":\"10000\"}, {\"b_sms\":\"10000\"}, {\"a_data_blk_plan\":\"500\"   }, {\"a_data_blk128\":\"4096\"}, {\"b_data_thr64\":\"0\"}, {\"a_data_blk256_v2\":\"1024\"}, {\"n_roam_smpglb\":\"\"}, {\"a_voicesmswallet_ir\":\"750\"} ]",
  "amdocs/plans/Ultra/UVTHIRTYFIVE": "[ {\"n_lte\":\"\"}, {\"r_univision\":\"\"}, {\"b_voice\":\"10000\"}, {\"b_sms\":\"10000\"}, {\"a_data_blk_plan\":\"1524\"}, {\"a_data_blk128\":\"4096\"}, {\"b_data_thr64\":\"0\"}, {\"n_roam_smpglb\":\"\"}, {\"a_voicesmswallet_ir\":\"1000\"} ]",
  "amdocs/plans/Ultra/UVFORTYFIVE":  "[ {\"n_lte\":\"\"}, {\"r_univision\":\"\"}, {\"b_voice\":\"10000\"}, {\"b_sms\":\"10000\"}, {\"a_data_blk_plan\":\"3160\"}, {\"a_data_blk128\":\"2560\"}, {\"b_data_thr64\":\"0\"}, {\"n_roam_smpglb\":\"\"}, {\"a_voicesmswallet_ir\":\"1000\"} ]",
  "amdocs/plans/Ultra/UVFIFTY":      "[ {\"n_lte\":\"\"}, {\"r_univision\":\"\"}, {\"b_voice\":\"10000\"}, {\"b_sms\":\"10000\"}, {\"a_data_blk_plan\":\"2548\"}, {\"a_data_blk128\":\"3072\"}, {\"b_data_thr64\":\"0\"}, {\"n_roam_smpglb\":\"\"}, {\"a_voicesmswallet_ir\":\"1500\"} ]",
  "amdocs/plans/Ultra/UVFIFTYFIVE":  "[ {\"n_lte\":\"\"}, {\"r_univision\":\"\"}, {\"b_voice\":\"10000\"}, {\"b_sms\":\"10000\"}, {\"a_data_blk_plan\":\"5620\"}, {\"a_data_blk128\":\"1024\"}, {\"b_data_thr64\":\"0\"}, {\"n_roam_smpglb\":\"\"}, {\"a_voicesmswallet_ir\":\"1500\"} ]",
  "amdocs/plans/Ultra/UVSNINETEEN": "[ {\"n_lte\":\"\"}, {\"r_univision\":\"\"}, {\"b_voice\":\"10000\"}, {\"b_sms\":\"9000\"}, {\"a_data_blk_plan\":\"600\"}, {\"b_data_blk\":\"0\"}, {\"n_roam_smpglb\":\"\"}, {\"a_voicesmswallet_ir\":\"500\"} ]",
  "amdocs/plans/Ultra/UVSTWENTYFOUR": "[ {\"n_lte\":\"\"}, {\"r_univision\":\"\"}, {\"b_voice\":\"10000\"}, {\"b_sms\":\"9000\"}, {\"a_data_blk_plan\":\"1000\"}, {\"b_data_blk\":\"0\"}, {\"n_roam_smpglb\":\"\"}, {\"a_voicesmswallet_ir\":\"1000\"} ]",
  "amdocs/plans/Ultra/UVSTWENTYNINE": "[ {\"n_lte\":\"\"}, {\"r_univision\":\"\"}, {\"b_voice\":\"10000\"}, {\"b_sms\":\"9000\"}, {\"a_data_blk_plan\":\"1524\"}, {\"a_data_blk256_v2\":\"1024\"}, {\"b_data_thr64\":\"0\"}, {\"n_roam_smpglb\":\"\"}, {\"a_voicesmswallet_ir\":\"1000\"} ]",
  "amdocs/plans/Ultra/UVSTHIRTYFOUR": "[ {\"n_lte\":\"\"}, {\"r_univision\":\"\"}, {\"b_voice\":\"10000\"}, {\"b_sms\":\"9000\"}, {\"a_data_blk_plan\":\"2548\"}, {\"a_data_blk256_v2\":\"2048\"}, {\"b_data_thr64\":\"0\"}, {\"n_roam_smpglb\":\"\"}, {\"a_voicesmswallet_ir\":\"1000\"} ]",
  "amdocs/plans/Ultra/UVSTHIRTYNINE": "[ {\"n_lte\":\"\"}, {\"r_univision\":\"\"}, {\"b_voice\":\"10000\"}, {\"b_sms\":\"9000\"}, {\"a_data_blk_plan\":\"2548\"}, {\"a_data_blk256_v2\":\"2048\"}, {\"b_data_thr64\":\"0\"}, {\"n_roam_smpglb\":\"\"}, {\"a_voicesmswallet_ir\":\"1000\"} ]",
  "amdocs/plans/Ultra/UVSFORTYFOUR": "[ {\"n_lte\":\"\"}, {\"r_univision\":\"\"}, {\"b_voice\":\"10000\"}, {\"b_sms\":\"9000\"}, {\"a_data_blk_plan\":\"1524\"}, {\"a_data_blk128\":\"5120\"}, {\"b_data_thr64\":\"0\"}, {\"n_roam_smpglb\":\"\"}, {\"a_voicesmswallet_ir\":\"1500\"} ]",
  "amdocs/plans/Ultra/UVSFORTYFIVE": "[ {\"n_lte\":\"\"}, {\"r_univision\":\"\"}, {\"b_voice\":\"10000\"}, {\"b_sms\":\"9000\"}, {\"a_data_blk_plan\":\"5620\"}, {\"a_data_blk256_v2\":\"5120\"}, {\"b_data_thr64\":\"0\"}, {\"n_roam_smpglb\":\"\"}, {\"a_voicesmswallet_ir\":\"1500\"} ]",
  "amdocs/plans/Ultra/UVSFORTYNINE": "[ {\"n_lte\":\"\"}, {\"r_unlimited\":\"\"}, {\"b_voice\":\"10000\"}, {\"b_sms\":\"9000\"}, {\"a_data_blk_plan\":\"2548\"}, {\"a_data_blk256_v2\":\"2048\"}, {\"b_data_thr64\":\"0\"}, {\"n_roam_smpglb\":\"\"}, {\"a_voicesmswallet_ir\":\"1500\"} ]",
  "amdocs/plans/Ultra/UVSFIFTYFOUR": "[ {\"n_lte\":\"\"}, {\"r_univision\":\"\"}, {\"b_voice\":\"10000\"}, {\"b_sms\":\"9000\"}, {\"a_data_blk_plan\":\"10740\"}, {\"a_data_blk256_v2\":\"10240\"}, {\"b_data_thr64\":\"0\"}, {\"n_roam_smpglb\":\"\"}, {\"a_voicesmswallet_ir\":\"1500\"} ]"
}