{
  "meta": { "version": "1", "TODO": "" },

  "security_meta": { "RBAC": "promotional group" },

  "commands":
  {
    "promotional__ActivatePromotionalCustomer":
    {
      "desc": "Kicksoff the state transition from Promo Used to Active.",
      "parameters":
      [
        "common-parameters.json",

        {
          "name":       "customer_id",
          "type":       "integer",
          "required":   true,
          "validation": { },
          "desc":       "Unique customer DB identifier."
        }
      ],

      "returns":
      [
        "common-returns.json"
      ]
    }
  }
}
