{
  "meta": { "version": "1" },

  "security_meta": { "RBAC": "rainmaker group" },

  "commands":
  {
      "interactivecare.json": "include",
      "customercare.json": "include",
      "customercare-partners-include.json": "include",
      "provisioning-partners-include.json": "include",
      "provisioning-pre-fund-include.json": "include",
      "provisioning-public-include.json": "include",
      "provisioning-rainmaker-include.json": "include",
      "portal-public-shipwire.json": "include"
  }
}
