{
  "commands":
  {
    "customercare__GetBoltOns":
    {
      "desc": "Get all allowed Bolt Ons",
      "parameters":
      [
        {
          "name": "customer_id",
          "type": "integer",
          "required": false,
          "validation": { },
          "desc": "customer ID, required if MSISDN is not given"
        },
        {
          "name": "msisdn",
          "type": "string",
          "required": false,
          "validation": { "min_strlen": 10, "max_strlen": 11 },
          "desc": "subscriber MSISDN, required if customer ID is not given"
        },
        {
          "name": "mode",
          "type": "string",
          "required": false,
          "validation": { "matches": [ "3ci" ] },
          "desc": "insert keys into output arrays so that dumb 3ci can understand"
        }
      ],

      "returns":
      [
        "common-returns.json",
        { "name": "api_error",         "type": "string",    "desc": "3ci readable API error"                                  },
        { "name": "bolt_ons",          "type": "string[]",  "desc": "Array of objects, each pertaining to a Bolt On Type."    },
        { "name": "balance",           "type": "integer",   "desc": "Subscriber balance"                                      }
      ]
    },

    "customercare__ApplyBoltOn":
    {
      "desc": "Applies the given Immediate Bolt On to the customer account.",
      "parameters":
      [
        {
          "name": "customer_id",
          "type": "integer",
          "required": false,
          "validation": { },
          "desc": "customer ID, required if MSISDN is not given"
        },
        {
          "name": "msisdn",
          "type": "string",
          "required": false,
          "validation": { "min_strlen": 10, "max_strlen": 11 },
          "desc": "subscriber MSISDN, required if customer ID is not given"
        },
        {
          "name": "bolt_on_id",
          "type": "string",
          "required": true,
          "validation": { },
          "desc": "Bolt On identifier."
        }
      ],

      "returns":
      [
        "common-returns.json",
        { "name": "api_error", "type": "string", "desc": "3ci readable API error" }
      ]
    }

  }
}
