{
  "meta": { "version": "2" },
  "security_meta": { "RBAC": "exacaster group" },

  "commands":
  {
    "exacaster__RedeemPromoCampaign":
    {
      "desc": "Assign a promotion to a customer",
      "parameters":
      [
        {
          "name": "access_token",
          "type": "string",
          "required": true,
          "validation": { },
          "desc": "Permanent access token for Exacaster"
        },
        {
          "name": "customer_id",
          "type": "integer",
          "required": true,
          "validation": { },
          "desc": "Customer Unique Numeric Identifier"
        },
        { 
          "name": "promo_keyword",
          "type": "string",
          "required": true,
          "validation": { },
          "desc": "Promotion Keyword"
        },
        {
          "name": "promo_action",
          "type": "string",
          "required": true,
          "validation": { "matches": [ "ADDBALANCE" , "ADDSTOREDVALUE" , "ADDPACKAGEBALANCE1" , "ADD4GDATA" , "ADDROAM" , "AUTORECHARGEWALLET" , "AUTORECHARGEDATA" , "CCREACTIVATEWALLET" , "CCREACTIVATEDATA" ] },
          "desc": "Promotion Action"
        },
        {
          "name": "promo_value",
          "type": "string",
          "required": true,
          "validation": { },
          "desc": "Promotion Value"
        },
        {
          "name": "promo_unit",
          "type": "string",
          "required": true,
          "validation": { },
          "desc": "Promotion Unit"
        }
      ],

      "returns":
      [ 
        "common-returns.json"
      ]
    },

    "exacaster__GetCustomerInfo":
    {
      "desc": "Returns customer information", 
      "parameters":
      [
        {
          "name": "access_token",
          "type": "string",
          "required": true,
          "validation": { },
          "desc": "Permanent access token for Exacaster"
        },
        {
          "name": "customer_id",
          "type": "integer",
          "required": true,
          "validation": { },
          "desc": "Customer Unique Numeric Identifier"
        }
      ],

      "returns":
      [
        "common-returns.json",
        { "name": "email",                  "type": "string",   "desc": "Email Address"                                                },
        { "name": "msisdn",                 "type": "string",   "desc": "Phone Number"                                                 },
        { "name": "iccid",                  "type": "string",   "desc": "Customer ICCID-19"                                            },
        { "name": "plan",                   "type": "string",   "desc": "Customer's current plan"                                      },
        { "name": "plan_state",             "type": "string",   "desc": "current plan state"                                           },
        { "name": "paid_through",           "type": "string",   "desc": "UNIX time of multi month expiration date"                     },
        { "name": "duration",               "type": "string",   "desc": "number of months in the multi month plan"                     },
        { "name": "monthly_renewal_target", "type": "string",   "desc": "Monthly renewal target plan"                                  },
        { "name": "balance",                "type": "integer",  "desc": "Balance held for renewals, international and data."           },
        { "name": "stored_value",           "type": "integer",  "desc": "Balance stored for paying plan renewals"                      },
        { "name": "packaged_balance",       "type": "integer",  "desc": "Balance held"                                                 },
        { "name": "auto_recharge",          "type": "boolean",  "desc": "For monthly plans, is auto recharge turned on?"               },
        { "name": "preferred_language",     "type": "string",   "desc": "Customer's preferred language code"                           },
        { "name": "has_billing_info_saved", "type": "boolean",  "desc": "Does the subscriber have CC info on file?"                    },
        { "name": "marketing_settings",     "type": "string[]", "desc": "Customer's marketing settings"                                },
        { "name": "bolt_ons",               "type": "string[]", "desc": "Array of Recurring Bolt Ons"                                  },
        { "name": "voice_minutes",          "type": "integer",  "desc": "voice minutes"                                                },
        { "name": "4g_lte_remaining",       "type": "string",   "desc": "4G LTE remaining data."                                       },
        { "name": "4g_lte_usage",           "type": "string",   "desc": "4G LTE data usage."                                           },
        { "name": "4g_lte_last_applied",    "type": "epoch",    "desc": "UNIX Epoch timestamp of the last time that data was applied." },
        { "name": "4g_lte_bolton_percent_used", "type": "integer", "desc": "Percentage of Mint Data Add On used."                      },
        { "name": "brand",                  "type": "string",   "desc": "Brand of customer ICCID"                                      }
      ]
    }
  }
}

