{
  "meta": { "version": "2" },

  "security_meta": { "RBAC": "tweakker group" },

  "commands":
  {
    "tweakker__ValidateMsisdnMvne":
    {
      "desc": "given MSISDN return its MVNE",
      "parameters":
      [
        {
            "name": "access_token",
            "type": "string",
            "required": true,
            "validation": { },
            "desc": "Permanent access token for Tweakker"
        },
        {
          "name": "msisdn",
          "type": "string",
          "required": true,
          "validation": { "min_strlen": 10, "max_strlen": 11 },
          "desc": "Mobile Phone Number (10 or 11 digits)"
        }
      ],

      "returns":
      [
        "common-returns.json",
        { "name": "MVNE",                           "type": "integer",    "desc": "MVNE assocciated with MSISDN"             }
      ]
    }

  }
}

